Document a Universe of Packages • dverse
…
document_universe() creates a data frame with documentation metadata of one or more packages.

library(dverse)
# demoverse
library(glue)
library(tibble)

demoverse <- c("glue", "tibble")
# For example: "https://tibble.tidyverse.org/reference/enframe.html"
template <- "https://{package}.tidyverse.org/reference/{topic}.html"
docs <- dverse::document_universe(demoverse, template)

docs
#> # A tibble: 46 × 7
#>    topic                               alias title concept type  keyword package
#>    <chr>                               <chr> <chr> <chr>   <chr> <chr>   <chr>  
#>  1 <a href=https://tibble.tidyverse.o… add_… Add … additi… help  <NA>    tibble 
#>  2 <a href=https://tibble.tidyverse.o… add_… Add … additi… help  <NA>    tibble 
#>  3 <a href=https://glue.tidyverse.org… as_g… Coer… <NA>    help  <NA>    glue   
#>  4 <a href=https://tibble.tidyverse.o… as_t… Coer… <NA>    help  <NA>    tibble 
#>  5 <a href=https://tibble.tidyverse.o… char… Form… vector… help  <NA>    tibble 
#>  6 <a href=https://tibble.tidyverse.o… depr… Depr… <NA>    help  intern… tibble 
#>  7 <a href=https://tibble.tidyverse.o… digi… Comp… <NA>    vign… <NA>    tibble 
#>  8 <a href=https://tibble.tidyverse.o… enfr… Conv… <NA>    help  <NA>    tibble 
#>  9 <a href=https://glue.tidyverse.org… engi… Cust… <NA>    vign… <NA>    glue   
#> 10 <a href=https://tibble.tidyverse.o… exte… Exte… <NA>    vign… <NA>    tibble 
#> # ℹ 36 more rows
…
