…
- `dverse::document_universe()` creates a data frame with the
  documentation of a collection of packages.
- `url_template` links each `{topic}` in each `{package}` with its
  corresponding documentation online.

``` r
library(glue)
library(tibble)

packages <- c("glue", "tibble")
url_template <- "https://{package}.tidyverse.org/reference/{topic}.html"
docs <- dverse::document_universe(packages, url_template)

docs
#> # A tibble: 35 × 5
#>    topic                                             alias title concept package
#>    <chr>                                             <chr> <chr> <chr>   <chr>  
#>  1 <a href=https://tibble.tidyverse.org/reference/a… add_… Add … additi… tibble 
#>  2 <a href=https://tibble.tidyverse.org/reference/a… add_… Add … additi… tibble 
#>  3 <a href=https://glue.tidyverse.org/reference/as_… as_g… Coer… <NA>    glue   
#>  4 <a href=https://tibble.tidyverse.org/reference/a… as_t… Coer… <NA>    tibble 
#>  5 <a href=https://tibble.tidyverse.org/reference/c… char… Form… vector… tibble 
#>  6 <a href=https://tibble.tidyverse.org/reference/d… digi… Comp… <NA>    tibble 
#>  7 <a href=https://tibble.tidyverse.org/reference/e… enfr… Conv… <NA>    tibble 
#>  8 <a href=https://tibble.tidyverse.org/reference/e… exte… Exte… <NA>    tibble 
#>  9 <a href=https://tibble.tidyverse.org/reference/f… form… Colu… <NA>    tibble 
#> 10 <a href=https://tibble.tidyverse.org/reference/f… form… Prin… <NA>    tibble 
#> # ℹ 25 more rows
```
…
