dverse • dverse
…
Basics

library(dplyr, warn.conflicts = FALSE)
# Use dverse and the universe of packages you want to document
library(dverse)
library(glue)
library(tibble)

universe <- c("glue", "tibble")
url_template <- "https://{package}.tidyverse.org/reference/{topic}.html"
documentation <- document_universe(universe, url_template = url_template)

# Note that {topic} and {pacakge} refer to column names
documentation
#> # A tibble: 39 × 5
#>    topic                                             alias title concept package
#>    <chr>                                             <chr> <chr> <chr>   <chr>  
#>  1 <a href=https://tibble.tidyverse.org/reference/a… add_… Add … additi… tibble 
#>  2 <a href=https://tibble.tidyverse.org/reference/a… add_… Add … additi… tibble 
#>  3 <a href=https://glue.tidyverse.org/reference/as_… as_g… Coer… NA      glue   
#>  4 <a href=https://tibble.tidyverse.org/reference/a… as_t… Coer… NA      tibble 
#>  5 <a href=https://tibble.tidyverse.org/reference/c… char… Form… vector… tibble 
#>  6 <a href=https://tibble.tidyverse.org/reference/d… digi… Comp… NA      tibble 
#>  7 <a href=https://tibble.tidyverse.org/reference/e… enfr… Conv… NA      tibble 
#>  8 <a href=https://glue.tidyverse.org/reference/eng… engi… Cust… NA      glue   
#>  9 <a href=https://tibble.tidyverse.org/reference/e… exte… Exte… NA      tibble 
#> 10 <a href=https://tibble.tidyverse.org/reference/f… form… Colu… NA      tibble 
#> # ℹ 29 more rows
…
