Get started • dverse
…
library(DT)

dverse::document_universe() takes the names of the
packages in the ‘toyverse’, and a template pointing to each help file
(topic) in each package.

toyverse <- c("glue", "dplyr")
# For example: https://dplyr.tidyverse.org/reference/select.html
template <- "https://{package}.tidyverse.org/reference/{topic}.html"

docs <- dverse::document_universe(toyverse, template)
docs
#> # A tibble: 138 × 7
#>    topic                               alias title concept type  keyword package
#>    <chr>                               <chr> <chr> <chr>   <chr> <chr>   <chr>  
#>  1 <a href=https://dplyr.tidyverse.or… acro… Appl… NA      help  NA      dplyr  
#>  2 <a href=https://dplyr.tidyverse.or… add_… Conv… NA      help  intern… dplyr  
#>  3 <a href=https://dplyr.tidyverse.or… all_… Flex… NA      help  intern… dplyr  
#>  4 <a href=https://dplyr.tidyverse.or… all_… Appl… NA      help  NA      dplyr  
#>  5 <a href=https://dplyr.tidyverse.or… args… Help… NA      help  intern… dplyr  
#>  6 <a href=https://dplyr.tidyverse.or… arra… Orde… single… help  NA      dplyr  
#>  7 <a href=https://dplyr.tidyverse.or… arra… Arra… NA      help  intern… dplyr  
#>  8 <a href=https://glue.tidyverse.org… as_g… Coer… NA      help  NA      glue   
#>  9 <a href=https://dplyr.tidyverse.or… auto… Copy… NA      help  NA      dplyr  
#> 10 <a href=https://dplyr.tidyverse.or… back… Data… NA      help  intern… dplyr  
#> # ℹ 128 more rows
…
