dverse • dverse
…
Basics

library(dplyr, warn.conflicts = FALSE)
# Use dverse and the universe of packages you want to document
library(dverse)
library(tools)
library(datasets)

universe <- c("datasets", "tools")
url_template <- "https://www.rdocumentation.org/packages/{package}/versions/3.6.2/topics/{topic}.html"
documentation <- document_universe(universe, url_template = url_template)
documentation
#> # A tibble: 228 × 5
#>    topic                                             alias title concept package
#>    <chr>                                             <chr> <chr> <chr>   <chr>  
#>  1 <a href=https://www.rdocumentation.org/packages/… .pri… Prin… Utilit… tools  
#>  2 <a href=https://www.rdocumentation.org/packages/… Adob… Conv… Datase… tools  
#>  3 <a href=https://www.rdocumentation.org/packages/… AirP… Mont… Datase… datase…
#>  4 <a href=https://www.rdocumentation.org/packages/… BJsa… Sale… Datase… datase…
#>  5 <a href=https://www.rdocumentation.org/packages/… BOD   Bioc… Datase… datase…
#>  6 <a href=https://www.rdocumentation.org/packages/… CO2   Carb… Datase… datase…
#>  7 <a href=https://www.rdocumentation.org/packages/… CRAN… CRAN… NA      tools  
#>  8 <a href=https://www.rdocumentation.org/packages/… Chic… Weig… Datase… datase…
#>  9 <a href=https://www.rdocumentation.org/packages/… DNase Elis… Datase… datase…
#> 10 <a href=https://www.rdocumentation.org/packages/… EuSt… Dail… Datase… datase…
#> # ℹ 218 more rows

select(documentation, topic)
#> # A tibble: 228 × 1
#>    topic                                                                        
#>    <chr>                                                                        
#>  1 <a href=https://www.rdocumentation.org/packages/tools/versions/3.6.2/topics/…
#>  2 <a href=https://www.rdocumentation.org/packages/tools/versions/3.6.2/topics/…
#>  3 <a href=https://www.rdocumentation.org/packages/datasets/versions/3.6.2/topi…
#>  4 <a href=https://www.rdocumentation.org/packages/datasets/versions/3.6.2/topi…
#>  5 <a href=https://www.rdocumentation.org/packages/datasets/versions/3.6.2/topi…
#>  6 <a href=https://www.rdocumentation.org/packages/datasets/versions/3.6.2/topi…
#>  7 <a href=https://www.rdocumentation.org/packages/tools/versions/3.6.2/topics/…
#>  8 <a href=https://www.rdocumentation.org/packages/datasets/versions/3.6.2/topi…
#>  9 <a href=https://www.rdocumentation.org/packages/datasets/versions/3.6.2/topi…
#> 10 <a href=https://www.rdocumentation.org/packages/datasets/versions/3.6.2/topi…
#> # ℹ 218 more rows
…
